[
  {
    "_id" : "P001",
    "name" : "product A",
    "description" : "This is product A",
    "price" : 1000.00,
    "stocks" : 20,
    "isActive" : true,
    "SKU" : "S1K2U3001"
  },
  {
    "_id" : "P002",
    "name" : "product B",
    "description" : "This is product B",
    "price" : 2000.00,
    "stocks" : 30,
    "isActive" : true,
    "SKU" : "S1K2U3002"
  },
  {
    "_id" : "P003",
    "name" : "product C",
    "description" : "This is product C",
    "price" : 3000.00,
    "stocks" : 15,
    "isActive" : true,
    "SKU" : "S1K2U3003"
  },
  {
    "_id" : "P004",
    "name" : "product D",
    "description" : "This is product D",
    "price" : 3000,
    "stocks" : 25,
    "isActive" : false,
    "SKU" : "S1K2U3004"
  }
]