[
  {
    "_id" : "A001",
    "firstName" : "John",
    "lastName" : "Doe",
    "email" : "johndoe@mail.com",
    "password" : "password123",
    "isAdmin" : false,
    "mobileNumber" : "+639123456789"
  },
  {
    "_id" : "A002",
    "firstName" : "Mark",
    "lastName" : "Doe",
    "email" : "markdoe@mail.com",
    "password" : "password123",
    "isAdmin" : false,
    "mobileNumber" : "+639123456781"
  },
  {
    "_id" : "A003",
    "firstName" : "Alvin",
    "lastName" : "Doe",
    "email" : "alvindoe@mail.com",
    "password" : "password123",
    "isAdmin" : true,
    "mobileNumber" : "+639123456782"
  }
]