[
  {
    "_id":"ABC123",
    "firstname": "John",
    "lastname": "Doe",
    "email": "johndoe@mail.com",
    "password": "johndoe123",
    "isAdmin": false,
    "mobileNumber": "+639123456789", 
    "enrollments": ["course100","course123"],
    "dateRegistered": "2023-02-2027"
  },
  {
    "_id":"DEF456",
    "firstname": "Janna",
    "lastname": "Doe",
    "email": "jannadoe@mail.com",
    "password": "jannadoe123",
    "isAdmin": true,
    "mobileNumber": "+639123456781", 
    "enrollments": [],
    "dateRegistered": "2023-02-29"
  },
  {
    "_id":"GHI789",
    "firstname": "Janono",
    "lastname": "Doe",
    "email": "Janonodoe@mail.com",
    "password": "Janonodoe123",
    "isAdmin": true,
    "mobileNumber": "+639123456782", 
    "enrollments": ["course123"],
    "dateRegistered": "2023-02-28"
  }
]